C:\Users\Karolina\workspace\Cwiczenie_02\src\main\java\filters\ApplicationDetalnSessionFilter.java
C:\Users\Karolina\workspace\Cwiczenie_02\src\main\java\filters\RegistrationClosedFilter.java
C:\Users\Karolina\workspace\Cwiczenie_02\src\main\java\repositories\ConferenceApplicationRepository.java
C:\Users\Karolina\workspace\Cwiczenie_02\src\main\java\repositories\DummyConferenceApplicationRepository.java
C:\Users\Karolina\workspace\Cwiczenie_02\src\main\java\domain\ConferenceApplication.java
C:\Users\Karolina\workspace\Cwiczenie_02\src\main\java\web\AddApplicantServlet.java
